<?xml version="1.0" encoding="utf-8"?>
<!-- Generator: Adobe Illustrator 18.1.1, SVG Export Plug-In . SVG Version: 6.00 Build 0)  -->
<!DOCTYPE svg PUBLIC "-//W3C//DTD SVG 1.1//EN" "http://www.w3.org/Graphics/SVG/1.1/DTD/svg11.dtd">
<svg version="1.1" id="Layer_1" xmlns="http://www.w3.org/2000/svg" xmlns:xlink="http://www.w3.org/1999/xlink" x="0px" y="0px"
	 width="69px" height="13px" viewBox="0 0 69 13" enable-background="new 0 0 69 13" xml:space="preserve">
<g>
	<polygon fill="#18B24B" points="6.5,0.5 8.1,5.1 13,5.1 9.2,8.1 10.6,12.7 6.5,10 2.4,12.7 3.8,8.1 0,5.1 4.9,5.1 	"/>
</g>
<g>
	<polygon fill="#18B24B" points="20.5,10.3 16.4,13 17.8,8.4 14,5.4 18.9,5.4 20.5,0.8 	"/>
</g>
<g>
	<path fill="#18B24B" d="M24.2,23.9"/>
</g>
<g>
	<g>
		<path fill="#18B24B" d="M20.5,3.8l0.7,1.9l0.2,0.7h0.7h2l-1.5,1.2L22.1,8l0.2,0.6l0.6,2l-1.8-1.2l-0.6-0.4l-0.6,0.4l-1.8,1.2
			l0.6-2L18.9,8l-0.5-0.4l-1.5-1.2h2h0.7l0.2-0.7L20.5,3.8 M20.5,0.8l-1.6,4.6H14l3.8,3L16.4,13l4.1-2.7l4.1,2.7l-1.4-4.6l3.8-3
			h-4.9L20.5,0.8L20.5,0.8z"/>
	</g>
</g>
<g>
	<g>
		<path fill="#18B24B" d="M34.5,3.8l0.7,1.9l0.2,0.7h0.7h2l-1.5,1.2L36.1,8l0.2,0.6l0.6,2l-1.8-1.2l-0.6-0.4l-0.6,0.4l-1.8,1.2
			l0.6-2L32.9,8l-0.5-0.4l-1.5-1.2h2h0.7l0.2-0.7L34.5,3.8 M34.5,0.8l-1.6,4.6H28l3.8,3L30.4,13l4.1-2.7l4.1,2.7l-1.4-4.6l3.8-3
			h-4.9L34.5,0.8L34.5,0.8z"/>
	</g>
</g>
<g>
	<g>
		<path fill="#18B24B" d="M48.5,3.8l0.7,1.9l0.2,0.7h0.7h2l-1.5,1.2L50.1,8l0.2,0.6l0.6,2l-1.8-1.2l-0.6-0.4l-0.6,0.4l-1.8,1.2
			l0.6-2L46.9,8l-0.5-0.4l-1.5-1.2h2h0.7l0.2-0.7L48.5,3.8 M48.5,0.8l-1.6,4.6H42l3.8,3L44.4,13l4.1-2.7l4.1,2.7l-1.4-4.6l3.8-3
			h-4.9L48.5,0.8L48.5,0.8z"/>
	</g>
</g>
<g>
	<g>
		<path fill="#18B24B" d="M62.5,3.8l0.7,1.9l0.2,0.7h0.7h2l-1.5,1.2L64.1,8l0.2,0.6l0.6,2l-1.8-1.2l-0.6-0.4l-0.6,0.4l-1.8,1.2
			l0.6-2L60.9,8l-0.5-0.4l-1.5-1.2h2h0.7l0.2-0.7L62.5,3.8 M62.5,0.8l-1.6,4.6H56l3.8,3L58.4,13l4.1-2.7l4.1,2.7l-1.4-4.6l3.8-3
			h-4.9L62.5,0.8L62.5,0.8z"/>
	</g>
</g>
</svg>
