<?xml version="1.0" encoding="utf-8"?>
<!-- Generator: Adobe Illustrator 18.1.1, SVG Export Plug-In . SVG Version: 6.00 Build 0)  -->
<!DOCTYPE svg PUBLIC "-//W3C//DTD SVG 1.1//EN" "http://www.w3.org/Graphics/SVG/1.1/DTD/svg11.dtd">
<svg version="1.1" id="Layer_1" xmlns="http://www.w3.org/2000/svg" xmlns:xlink="http://www.w3.org/1999/xlink" x="0px" y="0px"
	 width="69px" height="13px" viewBox="0 0 69 13" enable-background="new 0 0 69 13" xml:space="preserve">
<g>
	<polygon fill="#CECECE" points="6.5,0.4 8.1,5 13,5 9.2,8 10.6,12.6 6.5,9.9 2.4,12.6 3.8,8 0,5 4.9,5 	"/>
</g>
<g>
	<path fill="#CECECE" d="M24.2,6.5"/>
</g>
<g>
	<polygon fill="#CECECE" points="20.5,0.4 22.1,5 27,5 23.2,8 24.6,12.6 20.5,9.9 16.4,12.6 17.8,8 14,5 18.9,5 	"/>
</g>
<g>
	<polygon fill="#CECECE" points="34.5,0.4 36.1,5 41,5 37.2,8 38.6,12.6 34.5,9.9 30.4,12.6 31.8,8 28,5 32.9,5 	"/>
</g>
<g>
	<polygon fill="#CECECE" points="48.5,0.4 50.1,5 55,5 51.2,8 52.6,12.6 48.5,9.9 44.4,12.6 45.8,8 42,5 46.9,5 	"/>
</g>
<g>
	<polygon fill="#CECECE" points="62.5,0.4 64.1,5 69,5 65.2,8 66.6,12.6 62.5,9.9 58.4,12.6 59.8,8 56,5 60.9,5 	"/>
</g>
<g>
	<polygon fill="#CECECE" points="62.5,0.4 64.1,5 69,5 65.2,8 66.6,12.6 62.5,9.9 58.4,12.6 59.8,8 56,5 60.9,5 	"/>
</g>
</svg>
