<?xml version="1.0" encoding="utf-8"?>
<!-- Generator: Adobe Illustrator 18.1.1, SVG Export Plug-In . SVG Version: 6.00 Build 0)  -->
<!DOCTYPE svg PUBLIC "-//W3C//DTD SVG 1.1//EN" "http://www.w3.org/Graphics/SVG/1.1/DTD/svg11.dtd">
<svg version="1.1" id="Layer_1" xmlns="http://www.w3.org/2000/svg" xmlns:xlink="http://www.w3.org/1999/xlink" x="0px" y="0px"
	 width="36px" height="36px" viewBox="-493 367 36 36" enable-background="new -493 367 36 36" xml:space="preserve">
<path fill="#9C9C9C" d="M-464.8,378.9c0,5.6-3.4,6.2-4,12.3c0,0.6-0.5,1-1,1h-10.4c-0.6,0-1-0.5-1-1l0,0c-0.6-6.1-4-6.7-4-12.3
	c0-5.7,4.5-10.3,10.2-10.3S-464.8,373.2-464.8,378.9z M-469.9,393.2h-10.2c-0.6,0-1,0.5-1,1s0.5,1,1,1h10.2c0.6,0,1-0.5,1-1
	S-469.3,393.2-469.9,393.2z M-469.9,396.3h-10.2c-0.6,0-1,0.5-1,1s0.5,1,1,1h10.2c0.6,0,1-0.5,1-1S-469.3,396.3-469.9,396.3z
	 M-477.1,401.4h4.1c1.1,0,2.1-0.9,2.1-2.1h-8.2C-479.1,400.5-478.2,401.4-477.1,401.4z"/>
</svg>
